OOP/FIFO_8b/fifo_8b_tb.vcd
$date
	Mon Jul 21 17:16:25 2025
$end
$version
	QuestaSim Version 2021.2_1
$end
$timescale
	1ps
$end

$scope module FIFO_8b_tb $end
$var integer 32 ! wr_count $end
$var integer 32 " rd_count $end

$scope module dut $end
$var parameter 32 # DATA_WIDTH $end
$var parameter 32 $ DEPTH $end
$var parameter 32 % ADDR_WIDTH $end
$var wire 1 & clk $end
$var wire 1 ' rst_n $end
$var wire 1 ( wr $end
$var wire 1 ) rd $end
$var wire 1 * clear $end
$var wire 1 + data_in [7] $end
$var wire 1 , data_in [6] $end
$var wire 1 - data_in [5] $end
$var wire 1 . data_in [4] $end
$var wire 1 / data_in [3] $end
$var wire 1 0 data_in [2] $end
$var wire 1 1 data_in [1] $end
$var wire 1 2 data_in [0] $end
$var reg 1 3 data_out_valid $end
$var reg 8 4 data_out [7:0] $end
$var wire 1 5 empty $end
$var wire 1 6 full $end
$var reg 4 7 wr_ptr [3:0] $end
$var reg 4 8 rd_ptr [3:0] $end
$var reg 5 9 count [4:0] $end
$var wire 1 : data_next [7] $end
$var wire 1 ; data_next [6] $end
$var wire 1 < data_next [5] $end
$var wire 1 = data_next [4] $end
$var wire 1 > data_next [3] $end
$var wire 1 ? data_next [2] $end
$var wire 1 @ data_next [1] $end
$var wire 1 A data_next [0] $end
$var wire 1 B read_condition $end
$upscope $end
$upscope $end
$enddefinitions $end
#0
$dumpvars
03
b0 4
b0 7
b0 8
b0 9
b1000 #
b10000 $
b100 %
b0 !
b0 "
xA
x@
x?
x>
x=
x<
x;
x:
0B
02
01
00
0/
0.
0-
0,
0+
0*
0)
0(
0'
0&
15
06
$end
#5000
1&
1(
12
11
1,
1+
#10000
0&
#12000
1'
#15000
1&
b1 !
b1 7
b1 9
1A
1@
0?
0>
0=
0<
1;
1:
05
0(
#20000
0&
#25000
1&
1(
02
10
1.
0,
#30000
0&
#35000
1&
b10 !
b10 7
b10 9
0(
#40000
0&
#45000
1&
1(
12
01
00
#50000
0&
#55000
1&
b11 !
b11 7
b11 9
0(
#60000
0&
#65000
1&
1(
11
0.
1,
#70000
0&
#75000
1&
b100 !
b100 7
b100 9
0(
#80000
0&
#85000
1&
1(
01
1/
1.
1-
0+
#90000
0&
#95000
1&
b101 !
b101 7
b101 9
0(
#100000
0&
#105000
1&
02
0/
0.
0-
0,
#110000
0&
#115000
1&
#120000
0&
#125000
1&
#130000
0&
#135000
1&
#140000
0&
#145000
1&
#150000
0&
#155000
1&
#160000
0&
#165000
1&
1)
#170000
0&
#175000
1&
b11000011 4
b1 8
13
b100 9
0A
1?
1=
0;
0)
#180000
0&
#185000
1&
03
1)
#190000
0&
#195000
1&
b11 9
b10010110 4
b10 8
13
1A
0@
0?
0)
#200000
0&
#205000
1&
03
1)
#210000
0&
#215000
1&
b10 9
b10010001 4
b11 8
13
1@
0=
1;
0)
#220000
0&
#225000
1&
03
1(
11
10
1,
1+
#230000
0&
#235000
1&
b110 !
b110 7
b11 9
0(
#240000
0&
#245000
1&
1(
01
1-
0,
0+
#250000
0&
#255000
1&
b111 !
b111 7
b100 9
0(
#260000
0&
#265000
1&
1(
11
1/
#270000
0&
#275000
1&
b1000 !
b1000 7
b101 9
0(
#280000
0&
#285000
1&
1(
01
00
0-
#290000
0&
#295000
1&
b1001 !
b1001 7
b110 9
0(
#300000
0&
#305000
1&
1(
1.
1,
#310000
0&
#315000
1&
b1010 !
b1010 7
b111 9
0(
#320000
0&
#325000
1&
1(
12
11
10
0/
0.
1+
#330000
0&
#335000
1&
b1011 !
b1011 7
b1000 9
0(
#340000
0&
#345000
1&
1(
01
1/
1.
0+
#350000
0&
#355000
1&
b1100 !
b1100 7
b1001 9
0(
#360000
0&
#365000
1&
1(
02
11
00
0.
1-
0,
#370000
0&
#375000
1&
b1101 !
b1101 7
b1010 9
0(
#380000
0&
#385000
1&
1(
12
10
1.
0-
1,
1+
#390000
0&
#395000
1&
b1110 !
b1110 7
b1011 9
0(
#400000
0&
#405000
1&
1(
01
1-
#410000
0&
#415000
1&
b1111 !
b1111 7
b1100 9
0(
#420000
0&
#425000
1&
1(
02
00
0/
0+
#430000
0&
#435000
1&
b10000 !
b0 7
b1101 9
0(
#440000
0&
#445000
1&
1(
12
10
0-
#450000
0&
#455000
1&
b10001 !
b1 7
b1110 9
0(
#460000
0&
#465000
1&
1(
02
00
0,
#470000
0&
#475000
1&
b10010 !
b10 7
b1111 9
0(
#480000
0&
#485000
1&
1(
12
11
1/
0.
1,
1+
#490000
0&
#495000
1&
b10011 !
b11 7
b10000 9
16
0(
#500000
0&
#505000
1&
1)
02
01
0/
0,
0+
1B
0A
0@
0;
0:
#510000
0&
#515000
1&
b0 4
b100 8
13
b1111 9
0B
06
0)
1A
1>
1=
1<
1;
#520000
0&
#525000
1*
1&
b0 7
b0 9
b0 8
03
15
1?
0>
0<
1)
#530000
0&
#535000
1&
0)
#540000
0&
#545000
0*
1&
1)
#550000
0&
#555000
1&
b1010101 4
b1 8
13
0A
0?
0;
0)
#560000
0&
#565000
1&
03
1)
#570000
0&
#575000
1&
b10000 4
b10 8
13
1A
1@
1>
0=
1;
1:
0)
#580000
0&
#585000
1&
03
